…
2.
```R
# Bizden bir sayma işlemi isteniyor. Genus özelliğimizde kategorik. En kısa yoldan count() işimizi görecektir
#count() fonksiyonunu hatırlarsak sort argümanı ile sıralamayı da büyükten küçüğe ayarlayabiliriz.

msleep %>%
  count(genus, sort=T)
># A tibble: 77 x 2
     genus            n
   <fct>        <int>
 1 Panthera         3
 2 Spermophilus     3
 3 Equus            2
 4 Vulpes           2
 5 Acinonyx         1
 6 Aotus            1
 7 Aplodontia       1
 8 Blarina          1
 9 Bos              1
10 Bradypus         1
# ... with 67 more rows
````

3.
```R
#Sorumuzun ilk kısmı yani carni ve herbiyi beraber inceleyeceğimiz kısım.
msleep %>%
  filter(vore %in% c("herbi", "carni")) %>%
  group_by(genus) %>%
  summarise(ort_uyku = mean(sleep_total),
            ort_beyin_agir= mean(brainwt, na.rm = T)) %>%
  arrange(desc(ort_uyku))

># A tibble: 45 x 3
   genus        ort_uyku ort_beyin_agir
   <fct>           <dbl>          <dbl>
 1 Lutreolina       19.4      NaN      
 2 Dasypus          17.4        0.0108 
 3 Tamias           15.8      NaN      
 4 Spermophilus     15.4        0.00485
 5 Eutamias         14.9      NaN      
 6 Neofiber         14.6      NaN      
 7 Onychomys        14.5      NaN      
 8 Aplodontia       14.4      NaN      
 9 Bradypus         14.4      NaN      
10 Mesocricetus     14.3        0.001  
# ... with 35 more rows
…
**Çözümler**

1.
Uçakların kalkış tarihini gösteren month ve day değişkenleri 1 Ocak'ı temsil edecek şekilde verimizi filtreleyebiliriz. 

```R
flights %>%
  filter(month == 1 & day ==1)
  
>
# A tibble: 842 x 19
    year month   day dep_time sched_dep_time dep_delay arr_time sched_arr_time arr_delay carrier flight
   <int> <int> <int>    <int>          <int>     <dbl>    <int>          <int>     <dbl> <chr>    <int>
 1  2013     1     1      517            515         2      830            819        11 UA        1545
 2  2013     1     1      533            529         4      850            830        20 UA        1714
 3  2013     1     1      542            540         2      923            850        33 AA        1141
 4  2013     1     1      544            545        -1     1004           1022       -18 B6         725
 5  2013     1     1      554            600        -6      812            837       -25 DL         461
 6  2013     1     1      554            558        -4      740            728        12 UA        1696
 7  2013     1     1      555            600        -5      913            854        19 B6         507
 8  2013     1     1      557            600        -3      709            723       -14 EV        5708
 9  2013     1     1      557            600        -3      838            846        -8 B6          79
10  2013     1     1      558            600        -2      753            745         8 AA         301
# ... with 832 more rows, and 8 more variables: tailnum <chr>, origin <chr>, dest <chr>, air_time <dbl>,
#   distance <dbl>, hour <dbl>, minute <dbl>, time_hour <dttm>
…
Gecikmeli uçuş oranlarına göre havayolu şirketlerini sıraladığımızda normalde gecikmeli uçuş sayılarında 14. sırada olan Alaska Airlines Inc. şirketinin ilk sırada olduğunu görüyoruz. Gecikmeli uçuş oranına göre havayolu şirketlerini sıralamanın daha doğru bir analiz olduğunu söyleyebiliriz. 

8.
```R
flights %>%
  arrange(air_time) %>%
  select(air_time, carrier, distance, origin, dest)
  
>
# A tibble: 336,776 x 5
   air_time carrier distance origin dest 
      <dbl> <chr>      <dbl> <chr>  <chr>
 1       20 EV           116 EWR    BDL  
 2       20 EV           116 EWR    BDL  
 3       21 EV           116 EWR    BDL  
 4       21 EV            80 EWR    PHL  
 5       21 EV           116 EWR    BDL  
 6       21 EV            80 EWR    PHL  
 7       21 US           184 LGA    BOS  
 8       21 9E            94 JFK    PHL  
 9       21 EV           116 EWR    BDL  
10       21 EV           116 EWR    BDL  
# ... with 336,766 more rows
```
…
10.
```R
ucuslar <- flights %>%
  select(contains("delay"), distance, air_time, carrier, origin, dest)

ucuslar

>
# A tibble: 336,776 x 7
   dep_delay arr_delay distance air_time carrier origin dest 
       <dbl>     <dbl>    <dbl>    <dbl> <chr>   <chr>  <chr>
 1         2        11     1400      227 UA      EWR    IAH  
 2         4        20     1416      227 UA      LGA    IAH  
 3         2        33     1089      160 AA      JFK    MIA  
 4        -1       -18     1576      183 B6      JFK    BQN  
 5        -6       -25      762      116 DL      LGA    ATL  
 6        -4        12      719      150 UA      EWR    ORD  
 7        -5        19     1065      158 B6      EWR    FLL  
 8        -3       -14      229       53 EV      LGA    IAD  
 9        -3        -8      944      140 B6      JFK    MCO  
10        -2         8      733      138 AA      LGA    ORD  
# ... with 336,766 more rows
```

İçinde "delay" kelimesi geçen iki adet değişkenimiz olduğunu görüyoruz.

11.
```R
ucuslar <- ucuslar %>%
  mutate(gain = dep_delay - arr_delay,
         speed = distance / air_time * 60)

ucuslar

>
# A tibble: 336,776 x 9
   dep_delay arr_delay distance air_time carrier origin dest   gain speed
       <dbl>     <dbl>    <dbl>    <dbl> <chr>   <chr>  <chr> <dbl> <dbl>
 1         2        11     1400      227 UA      EWR    IAH      -9  370.
 2         4        20     1416      227 UA      LGA    IAH     -16  374.
 3         2        33     1089      160 AA      JFK    MIA     -31  408.
 4        -1       -18     1576      183 B6      JFK    BQN      17  517.
 5        -6       -25      762      116 DL      LGA    ATL      19  394.
 6        -4        12      719      150 UA      EWR    ORD     -16  288.
 7        -5        19     1065      158 B6      EWR    FLL     -24  404.
 8        -3       -14      229       53 EV      LGA    IAD      11  259.
 9        -3        -8      944      140 B6      JFK    MCO       5  405.
10        -2         8      733      138 AA      LGA    ORD     -10  319.
# ... with 336,766 more rows
```
…
F9 havayolu şirketinin ortalama olarak daha gecikmeli uçuşlar gerçekleştirdiğini söyleyebiliriz.

17.
Bir önceki soruda havayolu şirketine göre gruplayarak ortalama gecikme sürelerini bulmuştuk. Şimdi month ve day değişkenlerine göre gruplamamız gerekiyor.

```R
flights %>%
  group_by(month, day) %>%
  summarise(mean_delay = mean(dep_delay, na.rm = T)) %>%
  arrange(desc(mean_delay))
  
>
# A tibble: 365 x 3
# Groups:   month [12]
   month   day mean_delay
   <int> <int>      <dbl>
 1     3     8       83.5
 2     7     1       56.2
 3     9     2       53.0
 4     7    10       52.9
 5    12     5       52.3
 6     5    23       51.1
 7     9    12       50.0
 8     6    28       48.8
 9     6    24       47.2
10     7    22       46.7
# ... with 355 more rows
```
…
Veri setlerinde hem year hem de tailnum değişkenleri olmak üzere iki ortak isimli değişken olduğu için, 'by=' argümanını da kullanmamız gerekiyor.

```R
flights %>%
  inner_join(planes, , by = "tailnum") %>%
  count(manufacturer, model, sort=TRUE)
  
>
# A tibble: 147 x 3
   manufacturer                  model               n
   <chr>                         <chr>           <int>
 1 AIRBUS                        A320-232        31278
 2 EMBRAER                       EMB-145LR       28027
 3 EMBRAER                       ERJ 190-100 IGW 23716
 4 AIRBUS INDUSTRIE              A320-232        14553
 5 EMBRAER                       EMB-145XR       14051
 6 BOEING                        737-824         13809
 7 BOMBARDIER INC                CL-600-2D24     11807
 8 BOEING                        737-7H4         10389
 9 BOEING                        757-222          9150
10 MCDONNELL DOUGLAS AIRCRAFT CO MD-88            8932
# ... with 137 more rows
```
…
24.
```R
yeni_ucuslar <- flights %>%
  mutate(mesafe_tipi = case_when(distance > mean(distance) ~ "uzun",
                                 distance < mean(distance) ~ "kısa"))
```

25.
```R
yeni_ucuslar %>%
  inner_join(planes, by = "tailnum) %>%
  count(manufacturer, model, mesafe_tipi, sort=T)
  
>
# A tibble: 248 x 4
   manufacturer     model           mesafe_tipi     n
   <chr>            <chr>           <chr>       <int>
 1 EMBRAER          EMB-145LR       kısa        27927
 2 EMBRAER          ERJ 190-100 IGW kısa        21065
 3 AIRBUS           A320-232        uzun        19091
 4 AIRBUS           A320-232        kısa        12187
 5 EMBRAER          EMB-145XR       kısa        10504
 6 BOMBARDIER INC   CL-600-2D24     kısa        10497
 7 BOEING           737-824         uzun         8986
 8 AIRBUS INDUSTRIE A320-232        uzun         8626
 9 BOEING           757-222         uzun         8377
10 BOMBARDIER INC   CL-600-2C10     kısa         8130
# ... with 238 more rows
```
…
